{
    "swagger": "2.0",
    "info": {
        "description": "This is a simple passthrough API for sending requests to Google Place API.",
        "title": "ld_api",
        "contact": {
            "name": "API Support",
            "url": "http://www.swagger.io/support",
            "email": "support@swagger.io"
        },
        "license": {
            "name": "Apache 2.0",
            "url": "http://www.apache.org/licenses/LICENSE-2.0.html"
        },
        "version": "1.0"
    },
    "host": "localhost:8081",
    "basePath": "/api/v1",
    "paths": {
        "/locations": {
            "get": {
                "description": "Get locations after the search keyword within the given radius",
                "consumes": [
                    "application/json"
                ],
                "produces": [
                    "application/json"
                ],
                "tags": [
                    "locations"
                ],
                "summary": "List locations",
                "parameters": [
                    {
                        "type": "string",
                        "description": "Keyword to search for",
                        "name": "keyword",
                        "in": "query",
                        "required": true
                    },
                    {
                        "type": "number",
                        "description": "Radius in meters. Max 50000 m",
                        "name": "radius",
                        "in": "query"
                    }
                ],
                "responses": {
                    "200": {
                        "description": ""
                    },
                    "400": {
                        "description": "Bad Request",
                        "schema": {
                            "$ref": "#/definitions/ldcontroller.errorMsg"
                        }
                    },
                    "500": {
                        "description": "Internal Server Error",
                        "schema": {
                            "$ref": "#/definitions/ldcontroller.errorMsg"
                        }
                    },
                    "501": {
                        "description": "Not Implemented",
                        "schema": {
                            "$ref": "#/definitions/ldcontroller.errorMsg"
                        }
                    }
                }
            }
        }
    },
    "definitions": {
        "ldcontroller.errorMsg": {
            "type": "object",
            "properties": {
                "an additional message": {
                    "type": "object"
                },
                "code": {
                    "type": "integer",
                    "example": 400
                }
            }
        }
    }
}